1. Napisz funkcjÍ, ktůra wypisze tabliczkÍ mnoŅenia z liczbami wyrůwnanymi do prawej krawÍdzi w formie (od 1 do 15):
  1|  1|  2|  3|  4|...| 15|
  2|  2|  4|  6|  8|...| 30|
...|...|...|...|...|...|...|
 15| 15| 30| 45| 60|...|225|